============================================================================================================================================================================================================================================================
 Language                                                                                                                                                                                         Files        Lines         Code     Comments       Blanks
============================================================================================================================================================================================================================================================
 Markdown                                                                                                                                                                                             1           92            0           59           33
------------------------------------------------------------------------------------------------------------------------------------------------------------------------------------------------------------------------------------------------------------
 ./README.md                                                                                                                                                                                                      92            0           59           33
------------------------------------------------------------------------------------------------------------------------------------------------------------------------------------------------------------------------------------------------------------
 Plain Text                                                                                                                                                                                           5           20            0           19            1
------------------------------------------------------------------------------------------------------------------------------------------------------------------------------------------------------------------------------------------------------------
 ./structure.txt                                                                                                                                                                                                  10            0            9            1
 ./content_long_list.txt                                                                                                                                                                                           0            0            0            0
 ./robots.txt                                                                                                                                                                                                      1            0            1            0
 ./content_summary.txt                                                                                                                                                                                             8            0            8            0
 ./security.txt                                                                                                                                                                                                    1            0            1            0
============================================================================================================================================================================================================================================================
 Total                                                                                                                                                                                                6          112            0           78           34
============================================================================================================================================================================================================================================================
